\relax 
\@writefile{toc}{\contentsline {section}{\numberline {1}Domain model}{1}}
\@writefile{toc}{\contentsline {section}{\numberline {2}Naive centralized}{1}}
\@writefile{toc}{\contentsline {section}{\numberline {3}Centralized}{3}}
\@writefile{toc}{\contentsline {section}{\numberline {4}Token Ring}{4}}
\@writefile{toc}{\contentsline {section}{\numberline {5}Token Ring2}{5}}
\@writefile{toc}{\contentsline {section}{\numberline {6}Come eseguire}{6}}
