\relax 
\@writefile{toc}{\contentsline {section}{\numberline {1}Test Cruncher}{1}}
\@writefile{toc}{\contentsline {subsection}{\numberline {1.1}Configurazione 1}{1}}
\@writefile{toc}{\contentsline {subsubsection}{\numberline {1.1.1}Result}{1}}
\@writefile{toc}{\contentsline {subsection}{\numberline {1.2}Configurazione 2}{1}}
\@writefile{toc}{\contentsline {subsubsection}{\numberline {1.2.1}Result}{2}}
\@writefile{toc}{\contentsline {subsection}{\numberline {1.3}Configurazione 3}{2}}
\@writefile{toc}{\contentsline {subsubsection}{\numberline {1.3.1}Result}{3}}
\@writefile{toc}{\contentsline {subsection}{\numberline {1.4}Brevi considerazioni}{3}}
