\relax 
\@writefile{toc}{\contentsline {section}{\numberline {1}Strategia di gioco}{1}}
\@writefile{toc}{\contentsline {subsection}{\numberline {1.1}Strategia alternativa}{1}}
\@writefile{toc}{\contentsline {section}{\numberline {2}Modello concorrente}{1}}
\@writefile{toc}{\contentsline {section}{\numberline {3}Strategia di disegno}{1}}
\@writefile{toc}{\contentsline {subsection}{\numberline {3.1}Class: GameOfLifeFrame.java}{1}}
\@writefile{toc}{\contentsline {subsection}{\numberline {3.2}Class: GameOfLifeFrame2.java}{1}}
