\relax 
\@writefile{toc}{\contentsline {section}{\numberline {1}Es1}{1}}
\@writefile{toc}{\contentsline {subsection}{\numberline {1.1}Scenari}{4}}
\@writefile{toc}{\contentsline {section}{\numberline {2}Es2}{5}}
\@writefile{toc}{\contentsline {subsection}{\numberline {2.1}Alcuni esempi di possibili scenari}{5}}
\@writefile{toc}{\contentsline {subsection}{\numberline {2.2}Es3}{5}}
